{
  "id": 1,
  "name": "custom-sample",
  "cssUrl": "../../assets/css/1111.custom-sample.css",

  "enableWalkIn": true,
  "enableWaitingList": true,

  "languages": [
    {
      "name": "Ελληνικά",
      "code": "gr",
      "iconURL": "https://cdn-icons-png.flaticon.com/128/321/321234.png",
      "messages": {
        "welcome": "Παρακαλώ επιλέξτε την υπηρεσία που επιθυμείτε. Jackie O'",
        "thankYou": "Η επιλογή σας ολοκληρώθηκε με επιτυχία. Σας ευχαριστούμε για την προτίμηση."
      }
    },
    {
      "name": "English",
      "code": "en",
      "iconURL": "https://cdn-icons-png.flaticon.com/128/321/321227.png",
      "messages": {
        "welcome": "Please choose one of our services. Jackie O'",
        "thankYou": "Thank you for your visit."
      }
    },
    {
      "name": "русский",
      "code": "ru",
      "iconURL": "https://cdn-icons-png.flaticon.com/128/321/321257.png",
      "messages": {
        "welcome": "Пожалуйста, выберите одну из наших услуг. Jackie O'",
        "thankYou": "Спасибо за ваш визит."
      }
    }
  ]
}
